Case Study 1 – Sneha’s Data Blog
…
Rows: 3310 Columns: 10
── Column specification ────────────────────────────────────────────────────────
Delimiter: ";"
chr  (4): movie, distributor, mpaa_rating, genre
dbl  (4): production_budget, domestic_gross, worldwide_gross, decade
num  (1): profit_ratio
date (1): release_date

ℹ Use `spec()` to retrieve the full column specification for this data.
ℹ Specify the column types or set `show_col_types = FALSE` to quiet this message.

movie_profit

# A tibble: 3,310 × 10
   release_date movie           production_budget domestic_gross worldwide_gross
   <date>       <chr>                       <dbl>          <dbl>           <dbl>
 1 2005-07-22   November                   250000         191862          191862
 2 1998-08-28   I Married a St…            250000         203134          203134
 3 1997-03-28   Love and Other…            250000         212285          743216
 4 2000-07-14   Chuck&Buck                 250000        1055671         1157672
 5 2011-10-28   Like Crazy                 250000        3395391         3728400
 6 2003-04-11   Better Luck To…            250000        3802390         3809226
 7 2017-04-28   Sleight                    250000        3930990         3934450
 8 2002-06-28   Lovely and Ama…            250000        4210379         4613482
 9 2012-08-17   Compliance                 270000         319285          830700
10 2005-05-06   Fighting Tommy…            300000          10514           10514
# ℹ 3,300 more rows
# ℹ 5 more variables: distributor <chr>, mpaa_rating <chr>, genre <chr>,
#   profit_ratio <dbl>, decade <dbl>
…
There are missing values in the dataset for mpaa_rating and distributor.

Transforming the data

movie_modified <- movie_profit %>%
  dplyr::mutate(
    mpaa_rating = as_factor(mpaa_rating),
    genre = as_factor(genre),
    distributor = as_factor(distributor),
    decade = as_factor(decade)
  )
movie_modified

# A tibble: 3,310 × 10
   release_date movie           production_budget domestic_gross worldwide_gross
   <date>       <chr>                       <dbl>          <dbl>           <dbl>
 1 2005-07-22   November                   250000         191862          191862
 2 1998-08-28   I Married a St…            250000         203134          203134
 3 1997-03-28   Love and Other…            250000         212285          743216
 4 2000-07-14   Chuck&Buck                 250000        1055671         1157672
 5 2011-10-28   Like Crazy                 250000        3395391         3728400
 6 2003-04-11   Better Luck To…            250000        3802390         3809226
 7 2017-04-28   Sleight                    250000        3930990         3934450
 8 2002-06-28   Lovely and Ama…            250000        4210379         4613482
 9 2012-08-17   Compliance                 270000         319285          830700
10 2005-05-06   Fighting Tommy…            300000          10514           10514
# ℹ 3,300 more rows
# ℹ 5 more variables: distributor <fct>, mpaa_rating <fct>, genre <fct>,
#   profit_ratio <dbl>, decade <fct>
…
