Experiment 3 – Sneha’s Data Blog
…
The null distribution of f-values obtained by permutation

null_dist_infer <- grades_modified %>%
  specify(Score ~ Degree) %>%
  hypothesise(null = "independence") %>%
  generate(reps = 4999, type = "permute") %>%
  calculate(stat = "F")
##
null_dist_infer

Response: Score (numeric)
Explanatory: Degree (factor)
Null Hypothesis: independence
# A tibble: 4,999 × 2
   replicate   stat
       <int>  <dbl>
 1         1 0.130 
 2         2 0.478 
 3         3 1.73  
 4         4 1.71  
 5         5 0.315 
 6         6 0.0717
 7         7 1.82  
 8         8 0.318 
 9         9 0.102 
10        10 0.227 
# ℹ 4,989 more rows
…
