Day 3 – Sneha’s Data Blog
…
taxi <- read_csv("https://vincentarelbundock.github.io/Rdatasets/csv/modeldata/taxi.csv")

Rows: 10000 Columns: 8
── Column specification ────────────────────────────────────────────────────────
Delimiter: ","
chr (5): tip, company, local, dow, month
dbl (3): rownames, distance, hour

ℹ Use `spec()` to retrieve the full column specification for this data.
ℹ Specify the column types or set `show_col_types = FALSE` to quiet this message.

taxi

# A tibble: 10,000 × 8
   rownames tip   distance company                      local dow   month  hour
      <dbl> <chr>    <dbl> <chr>                        <chr> <chr> <chr> <dbl>
 1        1 yes      17.2  Chicago Independents         no    Thu   Feb      16
 2        2 yes       0.88 City Service                 yes   Thu   Mar       8
 3        3 yes      18.1  other                        no    Mon   Feb      18
 4        4 yes      20.7  Chicago Independents         no    Mon   Apr       8
 5        5 yes      12.2  Chicago Independents         no    Sun   Mar      21
 6        6 yes       0.94 Sun Taxi                     yes   Sat   Apr      23
 7        7 yes      17.5  Flash Cab                    no    Fri   Mar      12
 8        8 yes      17.7  other                        no    Sun   Jan       6
 9        9 yes       1.85 Taxicab Insurance Agency Llc no    Fri   Apr      12
10       10 yes       1.47 City Service                 no    Tue   Mar      14
# ℹ 9,990 more rows
…
Banned Books data-set (Trying it myself)

banned <- read_csv("../../data/banned-author-title.csv")

Rows: 1586 Columns: 7
── Column specification ────────────────────────────────────────────────────────
Delimiter: ","
chr (7): Author, Title, Type of Ban, State, District, Date of Challenge/Remo...

ℹ Use `spec()` to retrieve the full column specification for this data.
ℹ Specify the column types or set `show_col_types = FALSE` to quiet this message.

banned

# A tibble: 1,586 × 7
   Author              Title `Type of Ban` State District Date of Challenge/Re…¹
   <chr>               <chr> <chr>         <chr> <chr>    <chr>                 
 1 Àbíké-Íyímídé, Far… Ace … Banned from … Flor… Indian … Nov-21                
 2 Acevedo, Elizabeth  Clap… Banned from … Penn… Central… Sep-21                
 3 Acevedo, Elizabeth  The … Banned from … Flor… Indian … Nov-21                
 4 Acevedo, Elizabeth  The … Banned from … New … Marlbor… Feb-22                
 5 Acevedo, Elizabeth  The … Banned Pendi… Texas Frederi… Mar-22                
 6 Acevedo, Elizabeth  The … Banned Pendi… Virg… New Ken… Oct-21                
 7 Aciman, André       Call… Banned Pendi… Virg… Spotsly… Nov-21                
 8 Acito, Marc         How … Banned Pendi… Flor… Indian … Nov-21                
 9 Adeyoha, Koja       47,0… Banned from … Penn… Central… Sep-21                
10 Adichie, Chimamand… Half… Banned from … Mich… Hudsonv… Jan-22                
# ℹ 1,576 more rows
# ℹ abbreviated name: ¹​`Date of Challenge/Removal`
# ℹ 1 more variable: `Origin of Challenge` <chr>
…
Since there is data on so many states, like we did on day 4, i want to filter it to be only 10 states with the most amount of banned books.

top_states <- banned_modified %>%
  group_by(State) %>%                   # Group by state
  summarize(n = n()) %>%                # Count banned books per state
  slice_max(n, n = 10) %>%                # Select the top 5 states
  pull(State)                           # Extract the state names

top_10_states_data <- banned_modified %>%
  filter(State %in% top_states)

top_10_states_data

# A tibble: 1,524 × 7
   Author              Title `Type of Ban` State District Date of Challenge/Re…¹
   <chr>               <chr> <fct>         <fct> <fct>    <fct>                 
 1 Àbíké-Íyímídé, Far… Ace … Banned from … Flor… Indian … Nov-21                
 2 Acevedo, Elizabeth  Clap… Banned from … Penn… Central… Sep-21                
 3 Acevedo, Elizabeth  The … Banned from … Flor… Indian … Nov-21                
 4 Acevedo, Elizabeth  The … Banned Pendi… Texas Frederi… Mar-22                
 5 Acevedo, Elizabeth  The … Banned Pendi… Virg… New Ken… Oct-21                
 6 Aciman, André       Call… Banned Pendi… Virg… Spotsly… Nov-21                
 7 Acito, Marc         How … Banned Pendi… Flor… Indian … Nov-21                
 8 Adeyoha, Koja       47,0… Banned from … Penn… Central… Sep-21                
 9 Agell, Charlotte    The … Banned from … Texas North E… Dec-21                
10 Ahmadi, Arvin       How … Banned Pendi… Texas North E… Dec-21                
# ℹ 1,514 more rows
# ℹ abbreviated name: ¹​`Date of Challenge/Removal`
# ℹ 1 more variable: `Origin of Challenge` <fct>
…
