Day 6 – Sneha's Data Blog
…
NHANES_adult <-
  NHANES %>%
  distinct(ID, .keep_all = TRUE) %>%
  filter(Age >= 18) %>%
  select(Height) %>%
  drop_na(Height)
NHANES_adult

# A tibble: 4,790 × 1
   Height
    <dbl>
 1   165.
 2   168.
 3   167.
 4   170.
 5   182.
 6   169.
 7   148.
 8   178.
 9   181.
10   170.
# ℹ 4,780 more rows
…
pop_sd <- mosaic::sd(~Height, data = NHANES_adult)

pop_mean

[1] 168.3497

pop_sd 

[1] 10.15705

sample_50 <- mosaic::sample(NHANES_adult, size = 50) %>%
  select(Height)
sample_50

# A tibble: 50 × 1
   Height
    <dbl>
 1   144.
 2   158.
 3   176.
 4   155.
 5   163 
 6   167.
 7   153.
 8   151.
 9   167.
10   156.
# ℹ 40 more rows
…
sample_50_500 <- do(500) * {
  sample(NHANES_adult, size = 50) %>%
    select(Height) %>% # drop sampling related column "orig.id"
    summarise(
      sample_mean = mean(Height),
      sample_sd = sd(Height),
      sample_min = min(Height),
      sample_max = max(Height)
    )
}
sample_50_500

# A tibble: 500 × 6
   sample_mean sample_sd sample_min sample_max  .row .index
         <dbl>     <dbl>      <dbl>      <dbl> <int>  <dbl>
 1        168.      9.73       151.       193.     1      1
 2        167.      9.95       149        189.     1      2
 3        168.      9.86       152.       190.     1      3
 4        169.      9.85       145        196.     1      4
 5        167.      9.64       149.       191.     1      5
 6        170.     10.3        146.       193.     1      6
 7        167.      9.58       152.       189.     1      7
 8        168.     10.2        146.       186.     1      8
 9        169.     10.2        149.       190.     1      9
10        168.     11.3        146.       191.     1     10
# ℹ 490 more rows
…
