Case Study 3 – Sneha’s Data Blog
…
Playing with and understanding the data

Acquiring the data:

ice <- read_excel("../../data/ice.xlsx", , sheet = "SH-Daily-Extent")

New names:
• `` -> `...1`
• `` -> `...2`
• `` -> `...50`

ice

# A tibble: 366 × 52
   ...1     ...2 `1978` `1979` `1980` `1981` `1982` `1983` `1984` `1985` `1986`
   <chr>   <dbl>  <dbl>  <dbl>  <dbl>  <dbl>  <dbl>  <dbl>  <dbl>  <dbl>  <dbl>
 1 January     1     NA  NA      5.97   6.32  NA      6.51  NA     NA      7.72
 2 <NA>        2     NA   6.94  NA     NA      7.04  NA      6.94   6.53  NA   
 3 <NA>        3     NA  NA      5.67   5.79  NA      6.17  NA     NA      7.57
 4 <NA>        4     NA   6.84  NA     NA      6.69  NA      6.65   6.06  NA   
 5 <NA>        5     NA  NA      5.58   5.35  NA      5.87  NA     NA      7.24
 6 <NA>        6     NA   6.64  NA     NA      6.39  NA      6.30   5.66  NA   
 7 <NA>        7     NA  NA      5.33   5.19  NA      5.66  NA     NA      6.81
 8 <NA>        8     NA   6.27  NA     NA      6.08  NA      5.94   5.31  NA   
 9 <NA>        9     NA  NA      5      4.78  NA      5.30  NA     NA      6.28
10 <NA>       10     NA   6.14  NA     NA      5.86  NA      5.63   4.93  NA   
# ℹ 356 more rows
# ℹ 41 more variables: `1987` <dbl>, `1988` <dbl>, `1989` <dbl>, `1990` <dbl>,
#   `1991` <dbl>, `1992` <dbl>, `1993` <dbl>, `1994` <dbl>, `1995` <dbl>,
#   `1996` <dbl>, `1997` <dbl>, `1998` <dbl>, `1999` <dbl>, `2000` <dbl>,
#   `2001` <dbl>, `2002` <dbl>, `2003` <dbl>, `2004` <dbl>, `2005` <dbl>,
#   `2006` <dbl>, `2007` <dbl>, `2008` <dbl>, `2009` <dbl>, `2010` <dbl>,
#   `2011` <dbl>, `2012` <dbl>, `2013` <dbl>, `2014` <dbl>, `2015` <dbl>, …
…
ice_prepared

# A tibble: 16,836 × 4
   month     day series values
   <ord>   <dbl>  <int>  <dbl>
 1 January     1   1979  NA   
 2 January     1   1980   5.97
 3 January     1   1981   6.32
 4 January     1   1982  NA   
 5 January     1   1983   6.51
 6 January     1   1984  NA   
 7 January     1   1985  NA   
 8 January     1   1986   7.72
 9 January     1   1987  NA   
10 January     1   1988  NA   
# ℹ 16,826 more rows
…
