Case Study 2 – Sneha’s Data Blog
…
scores <- read_csv("../../data/school-scores-data.csv")

Rows: 577 Columns: 99
── Column specification ────────────────────────────────────────────────────────
Delimiter: ","
chr  (2): State.Code, State.Name
dbl (97): Year, Total.Math, Total.Test-takers, Total.Verbal, Academic Subjec...

ℹ Use `spec()` to retrieve the full column specification for this data.
ℹ Specify the column types or set `show_col_types = FALSE` to quiet this message.

scores

# A tibble: 577 × 99
    Year State.Code State.Name       Total.Math `Total.Test-takers` Total.Verbal
   <dbl> <chr>      <chr>                 <dbl>               <dbl>        <dbl>
 1  2005 AL         Alabama                 559                3985          567
 2  2005 AK         Alaska                  519                3996          523
 3  2005 AZ         Arizona                 530               18184          526
 4  2005 AR         Arkansas                552                1600          563
 5  2005 CA         California              522              186552          504
 6  2005 CO         Colorado                560               11990          560
 7  2005 CT         Connecticut             517               34313          517
 8  2005 DE         Delaware                502                6257          503
 9  2005 DC         District Of Col…        478                3622          490
10  2005 FL         Florida                 498               93505          498
# ℹ 567 more rows
# ℹ 93 more variables: `Academic Subjects.Arts/Music.Average GPA` <dbl>,
#   `Academic Subjects.Arts/Music.Average Years` <dbl>,
#   `Academic Subjects.English.Average GPA` <dbl>,
#   `Academic Subjects.English.Average Years` <dbl>,
#   `Academic Subjects.Foreign Languages.Average GPA` <dbl>,
#   `Academic Subjects.Foreign Languages.Average Years` <dbl>, …
…
    clean_names

The following objects are masked from 'package:datawizard':

    remove_empty, remove_empty_rows

The following objects are masked from 'package:stats':

    chisq.test, fisher.test

scores_cleaned <- clean_names(scores, case = "big_camel")
scores_cleaned

# A tibble: 577 × 99
    Year StateCode StateName            TotalMath TotalTestTakers TotalVerbal
   <dbl> <chr>     <chr>                    <dbl>           <dbl>       <dbl>
 1  2005 AL        Alabama                    559            3985         567
 2  2005 AK        Alaska                     519            3996         523
 3  2005 AZ        Arizona                    530           18184         526
 4  2005 AR        Arkansas                   552            1600         563
 5  2005 CA        California                 522          186552         504
 6  2005 CO        Colorado                   560           11990         560
 7  2005 CT        Connecticut                517           34313         517
 8  2005 DE        Delaware                   502            6257         503
 9  2005 DC        District Of Columbia       478            3622         490
10  2005 FL        Florida                    498           93505         498
# ℹ 567 more rows
# ℹ 93 more variables: AcademicSubjectsArtsMusicAverageGpa <dbl>,
#   AcademicSubjectsArtsMusicAverageYears <dbl>,
#   AcademicSubjectsEnglishAverageGpa <dbl>,
#   AcademicSubjectsEnglishAverageYears <dbl>,
#   AcademicSubjectsForeignLanguagesAverageGpa <dbl>,
#   AcademicSubjectsForeignLanguagesAverageYears <dbl>, …
…
Identifying the variables used: The quantitative values under all AcademicSubjects”Subject”AverageGpa’s quantitative data are plotted against each other. There is no particular data transformation required other than changing the variable names and cleaning the data-set a little more to only have these variables (although neither of these are really necessary)

scores_modified <- scores_cleaned %>%
  rename(
    ArtsMusic = AcademicSubjectsArtsMusicAverageGpa,
    English = AcademicSubjectsEnglishAverageGpa,
    ForeignLanguages = AcademicSubjectsForeignLanguagesAverageGpa,
    Mathematics = AcademicSubjectsMathematicsAverageGpa,
    NaturalSciences = AcademicSubjectsNaturalSciencesAverageGpa,
    SocialSciencesHistory = AcademicSubjectsSocialSciencesHistoryAverageGpa
    )%>%
  select(ArtsMusic, English, ForeignLanguages, Mathematics,NaturalSciences, SocialSciencesHistory)
scores_modified

# A tibble: 577 × 6
   ArtsMusic English ForeignLanguages Mathematics NaturalSciences
       <dbl>   <dbl>            <dbl>       <dbl>           <dbl>
 1      3.92    3.53             3.54        3.41            3.52
 2      3.76    3.35             3.34        3.06            3.25
 3      3.85    3.45             3.41        3.25            3.43
 4      3.9     3.61             3.64        3.46            3.55
 5      3.76    3.32             3.29        3.05            3.2 
 6      3.88    3.49             3.41        3.33            3.43
 7      3.66    3.13             3.03        3               3.07
 8      3.71    3.21             3.18        3.07            3.19
 9      3.54    3.03             3.04        2.91            2.99
10      3.77    3.29             3.3         3.07            3.27
# ℹ 567 more rows
# ℹ 1 more variable: SocialSciencesHistory <dbl>
…
income_data

# A tibble: 3,462 × 2
   IncomeCategory Value
   <ord>          <dbl>
 1 Between20_40K    513
 2 LessThan20K      462
 3 Between40_60K    539
 4 Between60_80K    550
 5 Between80_100K   566
 6 MoreThan100K     588
 7 Between20_40K    492
 8 LessThan20K      464
 9 Between40_60K    517
10 Between60_80K    513
# ℹ 3,452 more rows
…
