Day 1 – Sneha’s Data Blog
…
library(knitr)
library(kableExtra)

Attaching package: 'kableExtra'

The following object is masked from 'package:dplyr':

    group_rows

Getting a list of all baby names in the USA from the year 1880

babynames

# A tibble: 1,924,665 × 5
    year sex   name          n   prop
   <dbl> <chr> <chr>     <int>  <dbl>
 1  1880 F     Mary       7065 0.0724
 2  1880 F     Anna       2604 0.0267
 3  1880 F     Emma       2003 0.0205
 4  1880 F     Elizabeth  1939 0.0199
 5  1880 F     Minnie     1746 0.0179
 6  1880 F     Margaret   1578 0.0162
 7  1880 F     Ida        1472 0.0151
 8  1880 F     Alice      1414 0.0145
 9  1880 F     Bertha     1320 0.0135
10  1880 F     Sarah      1288 0.0132
# ℹ 1,924,655 more rows

Filtering the presence of my name i.e. Sneha and creating a line graph with this data

babynames %>% filter (name=="Sneha")

# A tibble: 43 × 5
    year sex   name      n       prop
   <dbl> <chr> <chr> <int>      <dbl>
 1  1975 F     Sneha     9 0.00000577
 2  1976 F     Sneha     7 0.00000445
 3  1977 F     Sneha     9 0.00000547
 4  1978 F     Sneha     9 0.00000548
 5  1979 F     Sneha     6 0.00000348
 6  1980 F     Sneha     7 0.00000393
 7  1981 F     Sneha     6 0.00000336
 8  1982 F     Sneha     8 0.00000441
 9  1983 F     Sneha     9 0.00000503
10  1984 F     Sneha    14 0.00000777
# ℹ 33 more rows
…
Filtering the presence of the name “Trisha” and creating a line graph with this data

babynames %>% filter (name=="Trisha")

# A tibble: 84 × 5
    year sex   name       n       prop
   <dbl> <chr> <chr>  <int>      <dbl>
 1  1934 F     Trisha     5 0.00000462
 2  1943 F     Trisha     5 0.00000348
 3  1944 F     Trisha    33 0.0000242 
 4  1945 F     Trisha    46 0.0000342 
 5  1946 F     Trisha    56 0.0000347 
 6  1947 F     Trisha    32 0.0000176 
 7  1948 F     Trisha    29 0.0000166 
 8  1949 F     Trisha    28 0.0000160 
 9  1950 F     Trisha    36 0.0000205 
10  1951 F     Trisha    50 0.0000271 
# ℹ 74 more rows
…
Filtering the presence of the name “Sarah” and creating a line graph with this data

babynames %>% filter (name=="Sarah" | name=="Sara") 

# A tibble: 487 × 5
    year sex   name      n      prop
   <dbl> <chr> <chr> <int>     <dbl>
 1  1880 F     Sarah  1288 0.0132   
 2  1880 F     Sara    165 0.00169  
 3  1881 F     Sarah  1226 0.0124   
 4  1881 F     Sara    147 0.00149  
 5  1882 F     Sarah  1410 0.0122   
 6  1882 F     Sara    180 0.00156  
 7  1883 F     Sarah  1359 0.0113   
 8  1883 F     Sara    183 0.00152  
 9  1883 M     Sarah     7 0.0000622
10  1884 F     Sarah  1518 0.0110   
# ℹ 477 more rows
…
