Experiment 4 – Sneha’s Data Blog
…
The null distribution of f-values obtained by permutation

null_dist_infer <- cartoons_modified %>%
  specify(Rating ~ Cartoon) %>%
  hypothesise(null = "independence") %>%
  generate(reps = 4999, type = "permute") %>%
  calculate(stat = "F")
##
null_dist_infer

Response: Rating (numeric)
Explanatory: Cartoon (factor)
Null Hypothesis: independence
# A tibble: 4,999 × 2
   replicate   stat
       <int>  <dbl>
 1         1 0.0642
 2         2 1.18  
 3         3 0.288 
 4         4 0.810 
 5         5 4.29  
 6         6 1.63  
 7         7 2.80  
 8         8 0.392 
 9         9 0.298 
10        10 0.922 
# ℹ 4,989 more rows
…
