Day 7 – Sneha’s Data Blog
…
# A tibble: 2 × 11
  name      class     min    Q1 median    Q3   max  mean    sd     n missing
* <chr>     <chr>   <dbl> <dbl>  <dbl> <dbl> <dbl> <dbl> <dbl> <int>   <int>
1 Semifinal numeric  314.  322.   326.  357.  383.  338.  22.9    12       0
2 Final     numeric  283.  319.   359.  387.  398.  350.  40.0    12       0

Diving2017_long <- Diving2017 %>%
  pivot_longer(
    cols = c(Final, Semifinal),
    names_to = "race",
    values_to = "scores"
  )
Diving2017_long

# A tibble: 24 × 4
   Name               Country     race      scores
   <fct>              <fct>       <chr>      <dbl>
 1 "CHEONG Jun Hoong" Malaysia    Final       398.
 2 "CHEONG Jun Hoong" Malaysia    Semifinal   326.
 3 " SI Yajie"        China       Final       396 
 4 " SI Yajie"        China       Semifinal   383.
 5 "REN Qian"         China       Final       392.
 6 "REN Qian"         China       Semifinal   368.
 7 "KIM Mi Rae"       North Korea Final       386.
 8 "KIM Mi Rae"       North Korea Semifinal   346 
 9 "WU Melissa"       Australia   Final       370.
10 "WU Melissa"       Australia   Semifinal   319.
# ℹ 14 more rows
…
frogs_orig <- read_csv("../../data/frogs.csv")

Rows: 60 Columns: 4
── Column specification ────────────────────────────────────────────────────────
Delimiter: ","
dbl (4): Frogspawn sample id, Temperature13, Temperature18, Temperature25

ℹ Use `spec()` to retrieve the full column specification for this data.
ℹ Specify the column types or set `show_col_types = FALSE` to quiet this message.

frogs_orig

# A tibble: 60 × 4
   `Frogspawn sample id` Temperature13 Temperature18 Temperature25
                   <dbl>         <dbl>         <dbl>         <dbl>
 1                     1            24            NA            NA
 2                     2            NA            21            NA
 3                     3            NA            NA            18
 4                     4            26            NA            NA
 5                     5            NA            22            NA
 6                     6            NA            NA            14
 7                     7            27            NA            NA
 8                     8            NA            22            NA
 9                     9            NA            NA            15
10                    10            27            NA            NA
# ℹ 50 more rows
…
    # knock off the unnecessary "Temperature" word
    # Just keep the digits thereafter
    patterns = c("Temperature", TempFac = "\\d+"),
    cols_remove = TRUE
  ) %>%
  # Convert Temp into TempFac, a 3-level factor
  mutate(TempFac = factor(
    x = TempFac,
    levels = c(13, 18, 25),
    labels = c("13", "18", "25")
  )) %>%
  rename("Id" = `Frogspawn sample id`) -> frogs_long
frogs_long

# A tibble: 60 × 3
      Id TempFac  Time
   <dbl> <fct>   <dbl>
 1     1 13         24
 2     2 18         21
 3     3 25         18
 4     4 13         26
 5     5 18         22
 6     6 25         14
 7     7 13         27
 8     8 18         22
 9     9 25         15
10    10 13         27
# ℹ 50 more rows
…
The black points: Estimate difference in means of the hatching time i.e. differences in mean pair vise.

Proportions:

CLT for proportions 1. sample proportion = population propotion 2. only go ahead with a sample if it has atleast 10 of the “minority”

data(yrbss, package = "openintro")
yrbss

# A tibble: 13,583 × 13
     age gender grade hispanic race                     height weight helmet_12m
   <int> <chr>  <chr> <chr>    <chr>                     <dbl>  <dbl> <chr>     
 1    14 female 9     not      Black or African Americ…  NA      NA   never     
 2    14 female 9     not      Black or African Americ…  NA      NA   never     
 3    15 female 9     hispanic Native Hawaiian or Othe…   1.73   84.4 never     
 4    15 female 9     not      Black or African Americ…   1.6    55.8 never     
 5    15 female 9     not      Black or African Americ…   1.5    46.7 did not r…
 6    15 female 9     not      Black or African Americ…   1.57   67.1 did not r…
 7    15 female 9     not      Black or African Americ…   1.65  132.  did not r…
 8    14 male   9     not      Black or African Americ…   1.88   71.2 never     
 9    15 male   9     not      Black or African Americ…   1.75   63.5 never     
10    15 male   10    not      Black or African Americ…   1.37   97.1 did not r…
# ℹ 13,573 more rows
# ℹ 5 more variables: text_while_driving_30d <chr>, physically_active_7d <int>,
#   hours_tv_per_school_day <chr>, strength_training_7d <int>,
#   school_night_hours_sleep <chr>
